Date,Open,High,Low,Close,Adj Close,Volume
2016-01-04,0.950000,0.950000,0.880000,0.910000,0.897435,1069800
2016-01-05,0.900000,0.950000,0.900000,0.940000,0.927021,830700
2016-01-06,0.930000,0.940000,0.860000,0.910000,0.897435,997900
2016-01-07,0.860000,0.900000,0.780000,0.790000,0.779092,1235600
2016-01-08,0.820000,0.890000,0.800000,0.830000,0.818540,1099700
2016-01-11,0.830000,0.830000,0.830000,0.830000,0.818540,0
2016-01-12,0.580000,0.580000,0.150000,0.190000,0.187377,7469500
2016-01-13,0.190000,0.200000,0.130000,0.130000,0.128205,4483700
2016-01-14,0.130000,0.150000,0.110000,0.150000,0.147929,2855100
2016-01-15,0.160000,0.250000,0.150000,0.200000,0.197238,2696100
2016-01-19,0.210000,0.240000,0.160000,0.190000,0.187377,1763100
2016-01-20,0.190000,0.220000,0.160000,0.220000,0.216962,1264300
2016-01-21,0.200000,0.380000,0.200000,0.340000,0.335305,2242100
2016-01-22,0.340000,0.510000,0.320000,0.470000,0.463510,2176700
2016-01-25,0.490000,0.790000,0.490000,0.770000,0.759368,3580500
2016-01-26,0.790000,0.790000,0.490000,0.510000,0.502958,2531600
2016-01-27,0.500000,0.570000,0.430000,0.560000,0.552268,1123200
2016-01-28,0.570000,0.740000,0.560000,0.710000,0.700197,879500
2016-01-29,0.700000,0.730000,0.620000,0.690000,0.680473,740800
2016-02-01,0.700000,0.720000,0.640000,0.680000,0.670611,325600
2016-02-02,0.660000,0.700000,0.620000,0.670000,0.660749,259100
2016-02-03,0.670000,0.730000,0.620000,0.720000,0.710059,441000
2016-02-04,0.710000,0.730000,0.640000,0.700000,0.690335,336000
2016-02-05,0.720000,0.720000,0.670000,0.710000,0.700197,101100
2016-02-08,null,null,null,null,null,null
2016-02-09,0.430000,0.540000,0.430000,0.460000,0.453649,159500
2016-02-10,0.480000,0.550000,0.460000,0.460000,0.453649,221700
2016-02-11,0.500000,0.510000,0.430000,0.510000,0.502958,133400
2016-02-12,0.460000,0.530000,0.440000,0.470000,0.463510,103300
2016-02-16,0.450000,0.520000,0.450000,0.480000,0.473372,128000
2016-02-17,0.500000,0.530000,0.420000,0.480000,0.473372,201200
2016-02-18,0.460000,0.520000,0.430000,0.500000,0.493096,161300
2016-02-19,0.470000,0.500000,0.430000,0.500000,0.493096,82100
2016-02-22,null,null,null,null,null,null
2016-02-23,0.430000,0.470000,0.430000,0.460000,0.453649,125100
2016-02-24,0.460000,0.470000,0.420000,0.470000,0.463510,131500
2016-02-25,0.470000,0.470000,0.400000,0.400000,0.394477,152900
2016-02-26,0.400000,0.460000,0.400000,0.450000,0.443787,143600
2016-02-29,0.420000,0.450000,0.400000,0.400000,0.394477,26500
2016-03-01,0.400000,0.430000,0.400000,0.400000,0.394477,44000
2016-03-02,0.400000,0.430000,0.400000,0.410000,0.404339,121500
2016-03-03,0.430000,0.450000,0.410000,0.430000,0.424063,209600
2016-03-04,0.410000,0.450000,0.410000,0.440000,0.433925,112100
2016-03-07,0.420000,0.450000,0.420000,0.440000,0.433925,49700
2016-03-08,0.450000,0.490000,0.400000,0.430000,0.424063,284300
2016-03-09,0.420000,0.440000,0.400000,0.410000,0.404339,153600
2016-03-10,0.400000,0.420000,0.380000,0.400000,0.394477,104500
2016-03-11,0.390000,0.400000,0.340000,0.370000,0.364891,125200
2016-03-14,0.360000,0.380000,0.330000,0.360000,0.355029,125600
2016-03-15,0.340000,0.360000,0.260000,0.290000,0.285996,214200
2016-03-16,0.290000,0.300000,0.250000,0.290000,0.285996,242500
2016-03-17,0.290000,0.290000,0.260000,0.260000,0.256410,139700
2016-03-18,0.270000,0.270000,0.210000,0.230000,0.226824,754000
2016-03-21,0.230000,0.290000,0.230000,0.290000,0.285996,342100
2016-03-22,0.300000,0.340000,0.280000,0.290000,0.285996,146500
2016-03-23,0.290000,0.300000,0.270000,0.300000,0.295858,27900
2016-03-24,0.280000,0.330000,0.270000,0.310000,0.305720,72300
2016-03-28,0.310000,0.330000,0.300000,0.310000,0.305720,97500
2016-03-29,0.280000,0.340000,0.280000,0.320000,0.315582,144700
2016-03-30,0.320000,0.340000,0.300000,0.300000,0.295858,183200
2016-03-31,0.310000,0.360000,0.310000,0.310000,0.305720,119800
2016-04-01,0.320000,0.340000,0.300000,0.300000,0.295858,126300
2016-04-04,null,null,null,null,null,null
2016-04-05,0.310000,0.330000,0.290000,0.320000,0.315582,116600
2016-04-06,0.320000,0.320000,0.310000,0.320000,0.315582,32800
2016-04-07,0.320000,0.320000,0.300000,0.310000,0.305720,46100
2016-04-08,0.310000,0.320000,0.310000,0.310000,0.305720,38400
2016-04-11,0.320000,0.320000,0.310000,0.320000,0.315582,158100
2016-04-12,0.320000,0.320000,0.310000,0.320000,0.315582,120200
2016-04-13,0.320000,0.350000,0.320000,0.350000,0.345167,123300
2016-04-14,0.320000,0.450000,0.320000,0.420000,0.414201,363800
2016-04-15,0.420000,0.490000,0.390000,0.410000,0.404339,92800
2016-04-18,0.380000,0.430000,0.380000,0.390000,0.384615,144100
2016-04-19,0.390000,0.410000,0.380000,0.390000,0.384615,201200
2016-04-20,0.380000,0.400000,0.380000,0.380000,0.374753,43700
2016-04-21,0.380000,0.380000,0.330000,0.380000,0.374753,81100
2016-04-22,0.380000,0.380000,0.350000,0.380000,0.374753,74400
2016-04-25,0.370000,0.380000,0.340000,0.340000,0.335305,53500
2016-04-26,0.320000,0.380000,0.320000,0.350000,0.345167,75400
2016-04-27,0.330000,0.360000,0.330000,0.340000,0.335305,39800
2016-04-28,0.360000,0.360000,0.320000,0.320000,0.315582,53700
2016-04-29,0.320000,0.340000,0.320000,0.330000,0.325443,59100
2016-05-02,null,null,null,null,null,null
2016-05-03,0.320000,0.360000,0.320000,0.350000,0.345167,177900
2016-05-04,0.360000,0.450000,0.350000,0.430000,0.424063,374600
2016-05-05,0.440000,0.480000,0.400000,0.470000,0.463510,383400
2016-05-06,0.470000,0.490000,0.350000,0.400000,0.394477,269000
2016-05-09,0.420000,0.420000,0.380000,0.400000,0.394477,52100
2016-05-10,0.400000,0.440000,0.390000,0.430000,0.424063,48800
2016-05-11,0.430000,0.430000,0.390000,0.400000,0.394477,83400
2016-05-12,0.400000,0.450000,0.400000,0.410000,0.404339,168900
2016-05-13,0.410000,0.430000,0.400000,0.400000,0.394477,64500
2016-05-16,0.400000,0.420000,0.390000,0.400000,0.394477,54300
2016-05-17,0.420000,0.420000,0.390000,0.390000,0.384615,45000
2016-05-18,0.390000,0.430000,0.390000,0.390000,0.384615,37000
2016-05-19,0.390000,0.420000,0.390000,0.400000,0.394477,50400
2016-05-20,0.400000,0.400000,0.350000,0.360000,0.355029,73500
2016-05-23,0.360000,0.380000,0.360000,0.380000,0.374753,35500
2016-05-24,0.360000,0.390000,0.360000,0.370000,0.364891,27100
2016-05-25,0.380000,0.380000,0.350000,0.370000,0.364891,117800
2016-05-26,0.350000,0.440000,0.350000,0.410000,0.404339,91900
2016-05-27,0.410000,0.410000,0.380000,0.400000,0.394477,52400
2016-05-31,0.400000,0.410000,0.380000,0.400000,0.394477,45600
2016-06-01,0.380000,0.400000,0.380000,0.390000,0.384615,21200
2016-06-02,0.380000,0.390000,0.380000,0.380000,0.374753,19000
2016-06-03,0.390000,0.400000,0.380000,0.390000,0.384615,38900
2016-06-06,0.390000,0.390000,0.370000,0.370000,0.364891,54400
2016-06-07,0.390000,0.400000,0.370000,0.400000,0.394477,126000
2016-06-08,0.400000,0.420000,0.380000,0.400000,0.394477,108800
2016-06-09,0.400000,0.410000,0.390000,0.410000,0.404339,52900
2016-06-10,0.420000,0.420000,0.370000,0.400000,0.394477,72600
2016-06-13,0.400000,0.400000,0.380000,0.400000,0.394477,30900
2016-06-14,0.400000,0.400000,0.380000,0.400000,0.394477,42600
2016-06-15,0.370000,0.390000,0.280000,0.350000,0.345167,352900
2016-06-16,0.330000,0.350000,0.320000,0.320000,0.315582,28700
2016-06-17,0.320000,0.330000,0.320000,0.330000,0.325443,26900
2016-06-20,0.320000,0.320000,0.280000,0.300000,0.295858,140400
2016-06-21,0.300000,0.310000,0.290000,0.310000,0.305720,61400
2016-06-22,0.300000,0.310000,0.290000,0.310000,0.305720,31500
2016-06-23,0.300000,0.320000,0.300000,0.320000,0.315582,56900
2016-06-24,0.320000,0.320000,0.300000,0.300000,0.295858,91500
2016-06-27,0.300000,0.310000,0.290000,0.290000,0.285996,62200
2016-06-28,0.290000,0.300000,0.290000,0.300000,0.295858,39200
2016-06-29,0.300000,0.300000,0.290000,0.290000,0.285996,49300
2016-06-30,0.300000,0.300000,0.290000,0.300000,0.295858,24200
2016-07-01,0.300000,0.300000,0.290000,0.290000,0.285996,41800
2016-07-05,0.300000,0.300000,0.210000,0.250000,0.246548,202000
2016-07-06,0.250000,0.260000,0.250000,0.260000,0.256410,89200
2016-07-07,0.260000,0.260000,0.250000,0.260000,0.256410,45300
2016-07-08,0.260000,0.260000,0.220000,0.240000,0.236686,65900
2016-07-11,0.250000,0.270000,0.240000,0.270000,0.266272,141400
2016-07-12,0.260000,0.370000,0.260000,0.330000,0.325443,292000
2016-07-13,0.350000,0.480000,0.350000,0.450000,0.443787,715400
2016-07-14,0.470000,0.490000,0.380000,0.380000,0.374753,639100
2016-07-15,0.380000,0.410000,0.380000,0.380000,0.374753,82100
2016-07-18,0.380000,0.420000,0.380000,0.420000,0.414201,50200
2016-07-19,0.430000,0.460000,0.410000,0.440000,0.433925,132900
2016-07-20,0.450000,0.450000,0.420000,0.430000,0.424063,51200
2016-07-21,0.430000,0.440000,0.420000,0.420000,0.414201,55600
2016-07-22,0.430000,0.450000,0.390000,0.410000,0.404339,209700
2016-07-25,0.420000,0.450000,0.410000,0.420000,0.414201,26600
2016-07-26,0.420000,0.460000,0.420000,0.440000,0.433925,214500
2016-07-27,0.440000,0.440000,0.420000,0.440000,0.433925,43400
2016-07-28,0.440000,0.440000,0.430000,0.430000,0.424063,65200
2016-07-29,0.440000,0.440000,0.420000,0.430000,0.424063,70600
2016-08-01,0.430000,0.450000,0.430000,0.440000,0.433925,55000
2016-08-02,0.430000,0.460000,0.430000,0.440000,0.433925,29200
2016-08-03,0.430000,0.440000,0.380000,0.400000,0.394477,272600
2016-08-04,0.410000,0.420000,0.410000,0.410000,0.404339,35200
2016-08-05,0.420000,0.420000,0.410000,0.410000,0.404339,37000
2016-08-08,0.410000,0.410000,0.390000,0.410000,0.404339,59300
2016-08-09,0.390000,0.400000,0.350000,0.370000,0.364891,227900
2016-08-10,0.350000,0.370000,0.330000,0.340000,0.335305,59200
2016-08-11,0.340000,0.350000,0.320000,0.330000,0.325443,140900
2016-08-12,0.320000,0.330000,0.310000,0.310000,0.305720,49400
2016-08-15,0.320000,0.330000,0.320000,0.320000,0.315582,94200
2016-08-16,0.320000,0.320000,0.300000,0.310000,0.305720,95400
2016-08-17,0.310000,0.310000,0.310000,0.310000,0.305720,30800
2016-08-18,0.310000,0.350000,0.310000,0.320000,0.315582,64200
2016-08-19,0.330000,0.330000,0.320000,0.320000,0.315582,23200
2016-08-22,0.320000,0.330000,0.310000,0.310000,0.305720,68000
2016-08-23,0.320000,0.340000,0.310000,0.320000,0.315582,31800
2016-08-24,0.310000,0.320000,0.310000,0.310000,0.305720,32700
2016-08-25,0.310000,0.320000,0.300000,0.300000,0.295858,61900
2016-08-26,0.300000,0.320000,0.300000,0.300000,0.295858,19300
2016-08-29,0.300000,0.300000,0.260000,0.280000,0.276134,55600
2016-08-30,0.280000,0.310000,0.280000,0.290000,0.285996,111700
2016-08-31,0.310000,0.310000,0.290000,0.300000,0.295858,43900
2016-09-01,0.300000,0.320000,0.300000,0.310000,0.305720,62400
2016-09-02,0.310000,0.330000,0.290000,0.320000,0.315582,481300
2016-09-06,0.310000,0.360000,0.310000,0.340000,0.335305,73900
2016-09-07,0.340000,0.340000,0.320000,0.330000,0.325443,294600
2016-09-08,0.320000,0.330000,0.310000,0.310000,0.305720,407900
2016-09-09,0.320000,0.320000,0.280000,0.290000,0.285996,125700
2016-09-12,0.300000,0.300000,0.280000,0.280000,0.276134,157500
2016-09-13,0.280000,0.290000,0.120000,0.240000,0.236686,1299800
2016-09-14,0.190000,0.260000,0.190000,0.250000,0.246548,262200
2016-09-15,0.220000,0.260000,0.220000,0.240000,0.236686,272700
2016-09-16,0.240000,0.280000,0.230000,0.260000,0.256410,273400
2016-09-19,0.260000,0.340000,0.260000,0.340000,0.335305,643600
2016-09-20,0.350000,0.450000,0.310000,0.400000,0.394477,640400
2016-09-21,0.430000,0.640000,0.430000,0.610000,0.601577,1521600
2016-09-22,0.600000,0.710000,0.460000,0.500000,0.493096,1113800
2016-09-23,0.480000,0.510000,0.370000,0.410000,0.404339,552500
2016-09-26,0.440000,0.480000,0.380000,0.440000,0.433925,310500
2016-09-27,0.450000,0.480000,0.410000,0.430000,0.424063,230700
2016-09-28,0.420000,0.450000,0.410000,0.420000,0.414201,263800
2016-09-29,0.430000,0.470000,0.410000,0.470000,0.463510,172000
2016-09-30,0.440000,0.440000,0.180000,0.180000,0.177515,5755200
2016-10-03,0.180000,0.180000,0.050000,0.060000,0.059172,14680800
2016-10-04,0.060000,0.060000,0.040000,0.050000,0.049310,7457400
2016-10-05,70.000000,70.000000,61.150002,63.000000,62.130123,1200200
2016-10-06,60.410000,62.000000,59.049999,61.310001,60.463455,757400
2016-10-07,61.310001,62.220001,60.970001,61.700001,60.848072,660100
2016-10-10,61.599998,65.500000,61.599998,65.389999,64.487122,893300
2016-10-11,65.389999,68.760002,65.260002,66.489998,65.571930,756700
2016-10-12,66.900002,67.849998,66.000000,67.699997,66.765221,794500
2016-10-13,68.760002,68.760002,66.199997,66.970001,66.045303,886200
2016-10-14,67.287003,68.250000,66.995003,67.139999,66.212952,656600
2016-10-17,67.139999,70.139999,67.041000,69.059998,68.106445,732400
2016-10-18,70.250000,71.199997,69.320000,69.870003,68.905273,1187100
2016-10-19,70.099998,72.750000,69.870003,71.160004,70.177452,1109600
2016-10-20,70.980003,72.320000,70.635002,71.800003,70.808617,630300
2016-10-21,71.629997,76.660004,71.629997,76.000000,74.950623,1440600
2016-10-24,75.519997,80.650002,75.279999,75.500000,74.457527,564800
2016-10-25,76.000000,78.129997,75.190002,75.680000,74.635033,514700
2016-10-26,76.440002,76.739998,75.239998,75.250000,74.210976,326200
2016-10-27,74.910004,75.779999,71.959999,73.419998,72.406242,560400
2016-10-28,73.239998,76.000000,72.682999,73.150002,72.139977,837300
2016-10-31,72.830002,74.000000,72.029999,73.379997,72.366798,210800
2016-11-01,73.750000,74.480003,73.180000,73.400002,72.386528,526300
2016-11-02,74.300003,76.190002,72.309998,72.889999,71.883568,461400
2016-11-03,72.610001,73.080002,70.930000,71.279999,70.295792,364900
2016-11-04,70.269997,73.169998,67.750000,68.000000,67.061081,529300
2016-11-07,69.540001,71.680000,67.370003,68.000000,67.061081,388900
2016-11-08,68.320000,71.699997,68.320000,71.519997,70.532478,882100
2016-11-09,80.000000,80.339996,73.860001,78.989998,77.899338,2705000
2016-11-10,81.800003,86.000000,80.639999,85.160004,83.984146,1360300
2016-11-11,85.160004,85.900002,82.779999,84.790001,83.619247,1082300
2016-11-14,84.839996,86.470001,84.680000,84.680000,83.510773,587500
2016-11-15,83.470001,84.330002,80.129997,82.760002,81.617287,619000
2016-11-16,82.080002,82.760002,78.650002,79.260002,78.165611,371500
2016-11-17,79.949997,79.949997,70.680000,73.949997,72.928917,1437300
2016-11-18,74.589996,76.870003,72.349998,72.669998,71.666603,405600
2016-11-21,74.449997,75.800003,70.910004,71.750000,70.759308,550400
2016-11-22,73.989998,77.629997,72.459999,77.320000,76.252396,666900
2016-11-23,77.940002,78.760002,73.112999,78.599998,77.514717,533100
2016-11-25,79.209999,79.209999,75.160004,75.459999,74.418083,184300
2016-11-28,76.290001,77.349998,72.769997,76.169998,75.118271,477600
2016-11-29,75.470001,76.500000,73.309998,75.830002,74.782974,480000
2016-11-30,76.000000,79.599998,76.000000,78.029999,76.952591,637300
2016-12-01,78.989998,79.000000,76.000000,77.720001,76.646866,424900
2016-12-02,78.029999,79.900002,76.669998,79.320000,78.224777,252900
2016-12-05,82.989998,84.500000,81.019997,82.500000,81.360870,1186300
2016-12-06,82.400002,84.250000,81.190002,83.529999,82.376648,712500
2016-12-07,83.750000,85.699997,80.910004,84.599998,83.431870,1004100
2016-12-08,84.250000,85.099998,82.253998,82.790001,81.646873,1091600
2016-12-09,82.540001,82.989998,79.320000,80.050003,78.944702,595100
2016-12-12,82.830002,86.355003,80.070000,83.690002,82.534447,1136300
2016-12-13,83.250000,83.750000,80.000000,81.790001,80.660683,847300
2016-12-14,81.250000,82.550003,78.970001,79.230003,78.136032,807800
2016-12-15,78.750000,82.699997,78.750000,80.269997,79.161659,1243800
2016-12-16,79.669998,80.315002,78.000000,79.000000,77.909203,2168400
2016-12-19,78.339996,80.730003,77.629997,79.830002,78.727745,220600
2016-12-20,79.690002,84.824997,79.500000,83.050003,81.903282,499600
2016-12-21,82.599998,83.500000,80.620003,80.900002,79.782967,203600
2016-12-22,80.199997,80.199997,77.410004,77.449997,76.380600,481400
2016-12-23,77.239998,79.180000,77.199997,78.389999,77.307617,207300
2016-12-27,78.080002,80.110001,78.080002,79.169998,78.076843,202400
2016-12-28,79.779999,79.910004,78.309998,79.099998,78.007813,197200
2016-12-29,78.820000,79.040001,76.730003,78.129997,77.051208,239700
2016-12-30,78.449997,79.644997,77.360001,78.050003,76.972328,334300
2017-01-03,78.050003,78.220001,74.769997,74.989998,73.954567,454600
2017-01-04,74.470001,75.599998,73.000000,75.139999,74.102493,352300
2017-01-05,74.669998,75.699997,73.739998,74.769997,73.737610,346900
2017-01-06,74.510002,75.500000,71.870003,72.260002,71.262268,440700
2017-01-09,71.599998,72.559998,70.379997,70.690002,69.713943,352500
2017-01-10,71.000000,72.157997,70.720001,71.989998,70.995987,673600
2017-01-11,72.339996,77.610001,72.180000,75.250000,74.210976,683400
2017-01-12,75.410004,76.970001,73.800003,76.050003,74.999931,361000
2017-01-13,76.320000,76.589996,73.870003,74.980003,73.944710,234300
2017-01-17,74.540001,75.019997,72.190002,73.040001,72.031494,421500
2017-01-18,72.589996,73.629997,72.070000,73.000000,71.992043,231500
2017-01-19,72.930000,73.360001,72.120003,72.209999,71.212952,284300
2017-01-20,72.260002,74.169998,72.260002,73.500000,72.485138,246400
2017-01-23,73.790001,74.489998,73.629997,73.879997,72.859894,146300
2017-01-24,74.250000,79.275002,73.635002,74.870003,73.836227,730500
2017-01-25,75.279999,76.629997,73.500000,74.449997,73.422020,592500
2017-01-26,74.160004,75.949997,73.459999,73.730003,72.711967,423100
2017-01-27,73.809998,74.480003,73.040001,73.650002,72.633072,294000
2017-01-30,73.480003,73.580002,71.080002,72.300003,71.301712,259300
2017-01-31,72.430000,72.699997,71.510002,71.989998,70.995987,235900
2017-02-01,72.410004,73.660004,71.025002,72.480003,71.479225,277600
2017-02-02,72.559998,74.220001,72.269997,73.550003,72.534447,435800
2017-02-03,73.680000,73.999001,71.629997,71.900002,70.907234,411900
2017-02-06,71.900002,72.529999,70.589996,70.919998,69.940758,355500
2017-02-07,70.900002,72.889999,70.519997,70.730003,69.753387,845300
2017-02-08,72.489998,72.500000,68.680000,68.830002,67.879623,1109500
2017-02-09,68.680000,71.370003,68.680000,70.959999,69.980202,553300
2017-02-10,70.889999,71.959999,68.919998,69.589996,68.629128,450800
2017-02-13,69.980003,70.300003,68.610001,68.870003,67.919067,524200
2017-02-14,68.449997,69.000000,67.730003,68.650002,67.702110,352700
2017-02-15,69.949997,72.949997,68.669998,69.820000,68.855949,1128300
2017-02-16,70.209999,72.809998,70.209999,72.110001,71.114334,654500
2017-02-17,74.000000,76.389999,73.419998,76.089996,75.039375,978600
2017-02-21,76.500000,77.980003,73.870003,74.000000,72.978233,802900
2017-02-22,73.940002,74.809998,72.669998,73.790001,72.771133,249800
2017-02-23,73.779999,74.739998,72.330002,73.110001,72.100533,511800
2017-02-24,72.980003,73.199997,71.074997,71.989998,70.995987,578900
2017-02-27,71.779999,73.550003,71.379997,72.500000,71.498947,312000
2017-02-28,72.239998,73.000000,71.665001,71.860001,70.867783,543400
2017-03-01,73.699997,75.500000,73.570000,74.690002,73.658714,545400
2017-03-02,74.550003,74.900002,71.110001,71.500000,70.512756,433500
2017-03-03,71.449997,72.720001,70.400002,71.720001,70.729721,298600
2017-03-06,71.699997,73.739998,71.699997,72.459999,71.459503,421100
2017-03-07,72.080002,72.860001,68.989998,69.099998,68.145889,578000
2017-03-08,68.599998,69.199997,66.300003,66.860001,65.936821,782500
2017-03-09,66.809998,66.809998,63.240002,66.320000,65.404282,1029300
2017-03-10,66.489998,66.947998,64.519997,64.650002,63.757336,418800
2017-03-13,64.519997,67.360001,64.519997,66.889999,65.966408,449800
2017-03-14,66.400002,67.209999,64.669998,65.639999,64.733665,289200
2017-03-15,66.029999,68.290001,65.000000,68.239998,67.297768,340600
2017-03-16,68.349998,70.260002,67.705002,67.910004,66.972321,295500
2017-03-17,68.540001,68.540001,65.580002,67.050003,66.124207,1778800
2017-03-20,67.000000,67.099998,65.059998,66.040001,65.128143,363700
2017-03-21,66.110001,67.230003,65.199997,65.449997,64.546288,509300
2017-03-22,65.169998,68.029999,65.169998,66.910004,65.986130,355600
2017-03-23,66.820000,66.820000,64.139999,64.900002,64.003891,860100
2017-03-24,64.750000,65.339996,63.259998,64.769997,63.875675,259700
2017-03-27,64.110001,68.000000,63.750000,67.750000,66.814537,774800
2017-03-28,68.050003,70.260002,67.010002,69.000000,68.047272,555900
2017-03-29,70.269997,70.650002,68.599998,69.330002,68.372711,349900
2017-03-30,69.540001,71.180000,68.785004,68.910004,67.958527,337900
2017-03-31,69.139999,69.839996,66.739998,68.940002,67.988113,309500
2017-04-03,71.010002,75.440002,70.830002,71.570000,70.581795,1211800
2017-04-04,72.019997,74.830002,72.004997,72.849998,71.844109,749400
2017-04-05,74.790001,74.959999,72.010002,72.190002,71.193237,640200
2017-04-06,73.199997,75.320000,73.089996,74.690002,73.658714,508800
2017-04-07,75.269997,76.879997,74.525002,74.750000,73.717880,640300
2017-04-10,74.730003,77.589996,73.550003,75.860001,74.812546,403400
2017-04-11,76.000000,76.000000,73.529999,74.010002,72.988098,501800
2017-04-12,73.099998,73.610001,70.419998,71.389999,70.404274,693900
2017-04-13,71.500000,72.430000,69.849998,70.760002,69.782982,747300
2017-04-17,70.930000,71.699997,70.160004,71.620003,70.631104,346000
2017-04-18,70.879997,71.169998,69.250999,71.040001,70.059105,660500
2017-04-19,71.419998,71.870003,70.150002,70.260002,69.289871,294200
2017-04-20,70.709999,71.639999,70.080002,71.239998,70.256340,220500
2017-04-21,71.370003,71.370003,70.110001,70.580002,69.605461,332500
2017-04-24,71.589996,72.355003,70.760002,71.680000,70.690262,182500
2017-04-25,71.980003,73.029999,70.669998,70.889999,69.911179,254600
2017-04-26,70.410004,72.010002,70.040001,71.099998,70.118279,288600
2017-04-27,70.430000,70.949997,69.430000,69.949997,68.984154,593300
2017-04-28,70.260002,70.330002,69.741997,70.239998,69.270149,305400
2017-05-01,70.320000,70.690002,69.889999,70.000000,69.033470,557200
2017-05-02,74.519997,76.669998,71.000000,74.739998,73.708015,1455900
2017-05-03,74.580002,74.900002,71.879997,72.580002,71.577843,605800
2017-05-04,72.370003,72.720001,69.900002,70.000000,69.033470,579600
2017-05-05,70.190002,72.129997,69.889999,70.930000,69.950623,258800
2017-05-08,71.150002,71.885002,70.849998,71.650002,70.660690,247400
2017-05-09,71.739998,72.349998,71.449997,71.900002,70.907234,186800
2017-05-10,72.070000,72.709999,71.930000,72.190002,71.193237,252700
2017-05-11,72.190002,73.489998,71.250000,72.730003,71.725777,286500
2017-05-12,72.480003,73.480003,71.800003,73.410004,72.396385,164000
2017-05-15,73.580002,75.459999,72.260002,72.529999,71.528526,235500
2017-05-16,73.059998,74.449997,72.209999,74.160004,73.136024,241400
2017-05-17,73.550003,73.879997,72.650002,73.050003,72.041351,216600
2017-05-18,72.550003,74.150002,70.800003,72.930000,71.923012,295300
2017-05-19,71.879997,73.620003,71.790001,72.879997,71.873703,274500
2017-05-22,72.720001,73.379997,71.559998,71.860001,70.867783,239300
2017-05-23,71.910004,73.089996,71.250000,72.989998,71.982185,200600
2017-05-24,72.900002,73.970001,72.250000,72.949997,71.942734,144200
2017-05-25,73.370003,73.830002,71.250000,71.820000,70.828339,341200
2017-05-26,71.650002,72.860001,70.970001,72.269997,71.621147,182600
2017-05-30,72.290001,72.800003,70.349998,70.389999,69.758034,321300
2017-05-31,70.419998,71.070000,68.000000,70.769997,70.134613,907300
2017-06-01,70.820000,71.480003,69.830002,71.379997,70.739143,364100
2017-06-02,71.220001,71.500000,68.489998,69.680000,69.054413,629300
2017-06-05,69.290001,70.595001,68.650002,70.059998,69.430992,282100
2017-06-06,69.620003,70.510002,69.239998,70.019997,69.391350,272500
2017-06-07,69.959999,70.349998,67.820000,67.839996,67.230919,230000
2017-06-08,67.500000,69.639999,67.019997,69.180000,68.558899,357100
2017-06-09,69.410004,70.669998,68.739998,70.040001,69.411171,289200
2017-06-12,69.959999,71.559998,69.339996,70.559998,69.926506,329800
2017-06-13,70.930000,71.739998,69.809998,70.370003,69.738220,586000
2017-06-14,70.320000,71.599998,68.779999,69.150002,68.529167,389800
2017-06-15,68.480003,69.050003,64.000000,64.970001,64.386688,616600
2017-06-16,65.000000,65.000000,61.560001,63.700001,63.128094,749200
2017-06-19,63.110001,64.540001,62.619999,62.799999,62.236176,594000
2017-06-20,62.130001,62.590000,60.299999,60.919998,60.373055,387200
2017-06-21,60.919998,62.630001,60.130001,62.299999,61.740662,758100
2017-06-22,62.630001,65.000000,61.480000,62.500000,61.938869,1084400
2017-06-23,62.250000,64.559998,60.570000,64.440002,63.861458,3217600
2017-06-26,64.389999,65.959999,62.549999,65.000000,64.416420,662800
2017-06-27,65.910004,65.959999,63.900002,64.779999,64.198395,565000
2017-06-28,65.870003,67.000000,65.260002,66.739998,66.140800,561700
2017-06-29,67.000000,68.510002,66.421997,67.900002,67.290390,417900
2017-06-30,68.050003,69.040001,66.949997,68.300003,67.686798,394300
2017-07-03,68.639999,70.000000,68.260002,68.779999,68.162483,195900
2017-07-05,68.940002,69.970001,67.389999,69.900002,69.272430,343500
2017-07-06,69.699997,70.389999,68.379997,68.750000,68.132751,329400
2017-07-07,68.739998,70.120003,67.970001,69.639999,69.014771,560200
2017-07-10,69.269997,71.000000,68.930000,70.389999,69.758034,360000
2017-07-11,71.089996,73.000000,69.489998,72.959999,72.304955,633700
2017-07-12,72.940002,73.970001,72.861000,73.480003,72.820297,526000
2017-07-13,73.220001,74.239998,72.860001,74.040001,73.375259,305400
2017-07-14,74.260002,75.680000,74.080002,74.550003,73.880684,485100
2017-07-17,74.180000,75.510002,73.828003,74.180000,73.514008,388500
2017-07-18,73.870003,74.970001,73.739998,74.680000,74.009514,375400
2017-07-19,74.440002,75.269997,74.190002,75.070000,74.396011,344400
2017-07-20,74.849998,76.000000,74.360001,75.900002,75.218567,313400
2017-07-21,76.889999,76.889999,74.449997,75.519997,74.841965,209200
2017-07-24,75.029999,75.959999,74.150002,75.199997,74.524841,476400
2017-07-25,76.000000,76.760002,74.735001,76.239998,75.555504,474800
2017-07-26,76.400002,77.360001,75.709999,76.110001,75.426674,593300
2017-07-27,74.000000,75.000000,71.139999,72.410004,71.759895,539500
2017-07-28,72.019997,74.089996,72.019997,73.320000,72.661728,173500
2017-07-31,73.320000,77.059998,73.230003,76.070000,75.387032,433800
2017-08-01,76.139999,78.000000,75.190002,77.480003,76.784378,409500
2017-08-02,76.599998,77.889999,76.279999,77.250000,76.556442,300900
2017-08-03,77.330002,77.860001,74.419998,74.570000,73.900505,278900
2017-08-04,74.839996,76.489998,74.080002,75.610001,74.931168,303400
2017-08-07,75.690002,76.889999,75.209999,76.510002,75.823090,283700
2017-08-08,76.300003,77.400002,75.660004,76.980003,76.288864,274600
2017-08-09,77.029999,77.699997,76.239998,76.540001,75.852821,226100
2017-08-10,76.389999,77.000000,75.540001,76.050003,75.367218,358900
2017-08-11,75.980003,76.540001,74.919998,75.209999,74.534760,275300
2017-08-14,75.650002,76.290001,74.870003,75.230003,74.554581,241500
2017-08-15,75.019997,75.739998,74.250000,74.580002,73.910416,282200
2017-08-16,75.410004,75.449997,73.660004,74.279999,73.613106,597700
2017-08-17,73.860001,75.430000,73.199997,73.800003,73.137421,239100
2017-08-18,73.610001,75.470001,73.199997,74.690002,74.019424,369500
2017-08-21,74.860001,76.500000,74.860001,75.720001,75.040184,208000
2017-08-22,76.260002,76.889999,74.919998,76.639999,75.951920,228600
2017-08-23,76.360001,77.970001,75.870003,77.660004,76.962761,355200
2017-08-24,77.980003,77.980003,74.779999,75.459999,74.782509,347400
2017-08-25,75.739998,76.970001,75.114998,76.570000,75.882545,352900
2017-08-28,76.849998,77.730003,76.400002,76.629997,75.942009,283200
2017-08-29,76.269997,78.464996,75.959999,77.070000,76.728508,354100
2017-08-30,77.279999,77.279999,75.580002,76.550003,76.210815,294300
2017-08-31,79.500000,80.290001,78.480003,79.870003,79.516106,515000
2017-09-01,80.150002,81.089996,79.820000,80.110001,79.755035,572300
2017-09-05,79.489998,79.669998,76.380997,76.720001,76.380058,350200
2017-09-06,77.570000,78.480003,76.440002,78.220001,77.873413,374500
2017-09-07,78.559998,78.570000,77.099998,78.110001,77.763901,291200
2017-09-08,77.660004,78.150002,75.839996,76.500000,76.161034,382900
2017-09-11,77.129997,78.500000,74.899002,75.449997,75.115685,458200
2017-09-12,78.290001,78.290001,74.919998,75.050003,74.717461,470800
2017-09-13,75.160004,77.540001,75.160004,76.040001,75.703072,391600
2017-09-14,76.320000,77.440002,75.500000,76.970001,76.628952,307300
2017-09-15,77.019997,77.449997,75.029999,75.300003,74.966354,360800
2017-09-18,75.410004,75.519997,73.940002,74.239998,73.911041,246200
2017-09-19,73.790001,74.250000,72.000000,72.529999,72.208626,404200
2017-09-20,72.839996,74.400002,72.120003,72.889999,72.567024,353200
2017-09-21,72.360001,72.919998,71.150002,71.550003,71.232971,395300
2017-09-22,70.959999,71.709999,70.709999,71.150002,70.834740,476000
2017-09-25,71.349998,73.940002,71.180000,73.180000,72.855743,420100
2017-09-26,72.779999,74.290001,72.349998,73.839996,73.512817,356500
2017-09-27,74.050003,74.610001,73.139999,73.620003,73.293793,352500
2017-09-28,73.610001,73.940002,71.849998,72.180000,71.860176,238200
2017-09-29,72.290001,73.320000,71.320000,71.739998,71.422119,322500
2017-10-02,71.629997,73.779999,71.620003,73.190002,72.865700,252400
2017-10-03,73.180000,73.639999,71.349998,72.800003,72.477432,378900
2017-10-04,73.059998,73.080002,71.300003,72.110001,71.790482,250200
2017-10-05,72.160004,74.180000,72.139999,72.989998,72.666580,221700
2017-10-06,72.669998,72.680000,71.099998,71.139999,70.824783,366400
2017-10-09,71.400002,72.150002,69.839996,70.360001,70.048241,405000
2017-10-10,71.050003,71.699997,70.419998,71.190002,70.874565,378400
2017-10-11,71.120003,71.660004,70.459999,70.620003,70.307091,211200
2017-10-12,70.050003,71.050003,70.050003,70.680000,70.366821,292500
2017-10-13,70.440002,70.800003,68.949997,69.389999,69.082535,457800
2017-10-16,69.580002,71.440002,69.355003,71.239998,70.924339,283300
2017-10-17,71.120003,73.239998,71.120003,72.870003,72.547119,407800
2017-10-18,72.940002,73.360001,71.739998,72.910004,72.586945,328900
2017-10-19,72.660004,75.430000,71.820000,75.010002,74.677635,361900
2017-10-20,75.820000,75.820000,74.989998,75.430000,75.095772,278400
2017-10-23,75.449997,76.059998,74.089996,74.190002,73.861267,367100
2017-10-24,73.949997,75.480003,73.949997,74.910004,74.578079,230000
2017-10-25,75.480003,75.500000,73.800003,73.959999,73.632286,230800
2017-10-26,73.930000,74.680000,71.610001,72.010002,71.690933,341700
2017-10-27,71.900002,72.378998,70.279999,72.300003,71.979645,321300
2017-10-30,72.320000,72.839996,70.820000,71.800003,71.481857,342200
2017-10-31,74.989998,77.919998,74.820000,76.419998,76.081383,1075000
2017-11-01,77.970001,79.879997,76.779999,78.949997,78.600174,593200
2017-11-02,78.779999,79.599998,77.820000,78.680000,78.331375,316700
2017-11-03,78.860001,79.690002,78.290001,79.379997,79.028267,349100
2017-11-06,79.669998,81.010002,79.492996,80.029999,79.675392,512900
2017-11-07,80.389999,80.989998,79.349998,79.680000,79.326942,283000
2017-11-08,79.629997,80.110001,78.760002,79.779999,79.426498,216500
2017-11-09,79.040001,80.089996,78.510002,78.669998,78.321419,293700
2017-11-10,78.589996,79.620003,78.120003,78.739998,78.391106,275000
2017-11-13,78.570000,79.080002,78.105003,78.849998,78.500618,222200
2017-11-14,78.919998,78.959999,77.769997,78.449997,78.102386,218700
2017-11-15,77.910004,78.250000,76.245003,78.050003,77.704170,282400
2017-11-16,78.500000,79.629997,78.099998,79.209999,78.859024,254300
2017-11-17,79.129997,79.400002,78.480003,78.790001,78.440887,216300
2017-11-20,78.779999,79.959999,78.139999,79.540001,79.187561,340400
2017-11-21,79.910004,81.019997,79.559998,80.489998,80.133354,287800
2017-11-22,80.669998,81.959999,80.635002,80.669998,80.312553,162600
2017-11-24,81.040001,81.440002,80.820000,80.989998,80.631134,106500
2017-11-27,80.860001,80.900002,78.680000,78.839996,78.490662,267900
2017-11-28,78.739998,79.589996,77.160004,78.989998,78.639999,316000
2017-11-29,78.349998,79.779999,77.410004,78.489998,78.489998,330400
2017-11-30,79.339996,82.629997,79.110001,82.559998,82.559998,525800
2017-12-01,82.599998,84.940002,81.650002,84.260002,84.260002,370400
2017-12-04,84.639999,85.650002,83.680000,84.320000,84.320000,243200
2017-12-05,80.919998,85.239998,80.910004,84.459999,84.459999,323000
2017-12-06,84.209999,85.720001,82.519997,83.199997,83.199997,304600
2017-12-07,83.230003,85.580002,82.980003,85.129997,85.129997,310800
2017-12-08,85.250000,86.203003,84.559998,84.940002,84.940002,308800
2017-12-11,85.760002,88.000000,85.639999,86.860001,86.860001,387000
2017-12-12,86.690002,87.900002,85.570000,85.760002,85.760002,313600
2017-12-13,85.849998,86.970001,85.309998,85.940002,85.940002,523900
2017-12-14,86.050003,86.669998,85.300003,85.379997,85.379997,218700
2017-12-15,86.080002,87.410004,85.879997,86.860001,86.860001,535300
2017-12-18,87.629997,88.440002,87.320000,87.989998,87.989998,276800
2017-12-19,87.989998,88.739998,87.400002,88.059998,88.059998,175300
2017-12-20,88.470001,89.474998,88.070000,88.790001,88.790001,167800
2017-12-21,88.860001,91.330002,88.860001,90.730003,90.730003,210800
2017-12-22,90.480003,91.320000,89.469002,91.129997,91.129997,115900
2017-12-26,91.120003,92.489998,91.120003,92.360001,92.360001,151400
2017-12-27,92.440002,93.515999,91.440002,91.690002,91.690002,102400
2017-12-28,91.860001,93.521004,91.739998,93.220001,93.220001,139500
2017-12-29,93.660004,94.570000,93.000000,93.160004,93.160004,175500
2018-01-02,93.839996,96.000000,93.540001,95.430000,95.430000,359700
2018-01-03,95.800003,95.989998,93.639999,93.769997,93.769997,243500
2018-01-04,94.629997,94.830002,91.300003,92.400002,92.400002,309000
2018-01-05,92.769997,93.440002,91.489998,92.720001,92.720001,249200
2018-01-08,92.620003,95.370003,91.529999,95.360001,95.360001,606600
2018-01-09,95.309998,96.470001,94.519997,95.440002,95.440002,294700
2018-01-10,95.150002,96.989998,94.894997,96.550003,96.550003,288100
2018-01-11,96.860001,99.529999,96.175003,98.680000,98.680000,340200
2018-01-12,98.910004,99.309998,96.519997,96.830002,96.830002,331200
2018-01-16,97.059998,97.769997,94.230003,94.480003,94.480003,362800
2018-01-17,95.320000,96.169998,94.269997,95.199997,95.199997,446000
2018-01-18,95.139999,95.139999,92.580002,92.989998,92.989998,257600
2018-01-19,92.559998,94.730003,92.199997,94.089996,94.089996,217600
2018-01-22,94.760002,95.500000,92.860001,93.970001,93.970001,165900
2018-01-23,94.470001,94.529999,90.389999,92.180000,92.180000,360700
2018-01-24,92.720001,94.000000,91.540001,92.690002,92.690002,334900
2018-01-25,90.599998,91.709999,89.294998,90.660004,90.660004,524500
2018-01-26,90.779999,93.480003,90.339996,93.029999,93.029999,248400
2018-01-29,92.930000,94.860001,92.739998,93.209999,93.209999,256600
2018-01-30,92.129997,92.250000,89.879997,89.900002,89.900002,262100
2018-01-31,89.959999,90.669998,88.839996,90.010002,90.010002,345400
2018-02-01,89.809998,92.690002,89.809998,92.559998,92.559998,195100
2018-02-02,91.639999,92.309998,87.464996,87.550003,87.550003,216000
2018-02-05,86.550003,89.540001,86.000000,86.019997,86.019997,320200
2018-02-06,88.480003,89.139999,83.900002,88.320000,88.320000,336900
2018-02-07,88.199997,88.839996,86.660004,87.269997,87.269997,307400
2018-02-08,87.470001,88.394997,85.581001,86.000000,86.000000,399300
2018-02-09,86.639999,87.400002,83.839996,85.660004,85.660004,452000
2018-02-12,86.040001,89.394997,85.014999,88.580002,88.580002,625000
2018-02-13,87.110001,90.889999,86.379997,90.129997,90.129997,635000
2018-02-14,89.809998,94.540001,89.605003,93.059998,93.059998,595400
2018-02-15,93.870003,95.239998,91.370003,94.169998,94.169998,769600
2018-02-16,93.620003,94.459999,91.760002,92.470001,92.470001,464900
